…
``` r
library(readxl)
library(tidyverse)
superstores_orders_tbl <- read_xls("~/Documents/website/Blog_code/Tableau_for_data_scientists_part_1/Sample - Superstore_Orders.xls")
```

Let's look at the dataset to see if everything is read correctly by R.

``` r
superstores_orders_tbl
```

```
## # A tibble: 9,994 x 20
##    Sales Profit Category City  Country Customer_Name Discount Manufacturer
##    <dbl>  <dbl> <chr>    <chr> <chr>   <chr>            <dbl> <chr>       
##  1   262     42 Furnitu… Hend… United… Claire Gute       0    Bush        
##  2   732    220 Furnitu… Hend… United… Claire Gute       0    Hon         
##  3    15      7 Office … Los … United… Darrin Van H…     0    Universal   
##  4   958   -383 Furnitu… Fort… United… Sean O'Donne…     0.45 Bretford    
##  5    22      3 Office … Fort… United… Sean O'Donne…     0.2  Eldon       
##  6    49     14 Furnitu… Los … United… Brosina Hoff…     0    Eldon       
##  7     7      2 Office … Los … United… Brosina Hoff…     0    Newell      
##  8   907     91 Technol… Los … United… Brosina Hoff…     0.2  Mitel       
##  9    19      6 Office … Los … United… Brosina Hoff…     0.2  DXL         
## 10   115     34 Office … Los … United… Brosina Hoff…     0    Belkin      
## # … with 9,984 more rows, and 12 more variables: Order_Date <dttm>,
## #   Order_ID <chr>, Postal_Code <dbl>, Product_Name <chr>, Profit_Ratio <dbl>,
## #   Quantity <dbl>, Region <chr>, Segment <chr>, Ship_Date <dttm>,
## #   Ship_Mode <chr>, State <chr>, Sub_Category <chr>
```
…
